<?xml version="1.0" encoding="windows-1252" standalone="no"?>
<!DOCTYPE log SYSTEM "logger.dtd">
<log>
<record>
  <date>2017-07-31T15:09:26</date>
  <millis>1501510166588</millis>
  <sequence>0</sequence>
  <logger></logger>
  <level>INFO</level>
  <class>java.util.logging.LogManager$RootLogger</class>
  <method>log</method>
  <thread>1</thread>
  <message>Started-new</message>
</record>
<record>
  <date>2017-08-05T18:44:54</date>
  <millis>1501955094792</millis>
  <sequence>1</sequence>
  <logger></logger>
  <level>INFO</level>
  <class>java.util.logging.LogManager$RootLogger</class>
  <method>log</method>
  <thread>12</thread>
  <message>start:1501955094789</message>
</record>
<record>
  <date>2017-08-05T18:45:08</date>
  <millis>1501955108420</millis>
  <sequence>2</sequence>
  <logger></logger>
  <level>INFO</level>
  <class>java.util.logging.LogManager$RootLogger</class>
  <method>log</method>
  <thread>12</thread>
  <message>893: end time:1501955108420</message>
</record>
<record>
  <date>2017-08-05T19:49:02</date>
  <millis>1501958942339</millis>
  <sequence>3</sequence>
  <logger></logger>
  <level>INFO</level>
  <class>java.util.logging.LogManager$RootLogger</class>
  <method>log</method>
  <thread>19</thread>
  <message>start:1501958942339</message>
</record>
<record>
  <date>2017-08-05T19:49:06</date>
  <millis>1501958946606</millis>
  <sequence>4</sequence>
  <logger></logger>
  <level>INFO</level>
  <class>java.util.logging.LogManager$RootLogger</class>
  <method>log</method>
  <thread>19</thread>
  <message>894: end time:1501958946606</message>
</record>
<record>
  <date>2017-08-05T20:35:16</date>
  <millis>1501961716895</millis>
  <sequence>5</sequence>
  <logger></logger>
  <level>INFO</level>
  <class>java.util.logging.LogManager$RootLogger</class>
  <method>log</method>
  <thread>22</thread>
  <message>start:1501961716895</message>
</record>
<record>
  <date>2017-08-05T20:35:20</date>
  <millis>1501961720377</millis>
  <sequence>6</sequence>
  <logger></logger>
  <level>INFO</level>
  <class>java.util.logging.LogManager$RootLogger</class>
  <method>log</method>
  <thread>22</thread>
  <message>895: end time:1501961720377</message>
</record>
