<?xml version="1.0" encoding="windows-1252" standalone="no"?>
<!DOCTYPE log SYSTEM "logger.dtd">
<log>
<record>
  <date>2017-08-24T17:43:10</date>
  <millis>1503592990601</millis>
  <sequence>6432</sequence>
  <logger></logger>
  <level>SEVERE</level>
  <class>java.util.logging.LogManager$RootLogger</class>
  <method>log</method>
  <thread>20</thread>
  <message>java.util.NoSuchElementException: No line found in run</message>
</record>
<record>
  <date>2017-08-24T17:43:10</date>
  <millis>1503592990640</millis>
  <sequence>6433</sequence>
  <logger></logger>
  <level>SEVERE</level>
  <class>java.util.logging.LogManager$RootLogger</class>
  <method>log</method>
  <thread>15</thread>
  <message>java.util.NoSuchElementException: No line found in run</message>
</record>
<record>
  <date>2017-08-24T17:43:10</date>
  <millis>1503592990677</millis>
  <sequence>6434</sequence>
  <logger></logger>
  <level>SEVERE</level>
  <class>java.util.logging.LogManager$RootLogger</class>
  <method>log</method>
  <thread>19</thread>
  <message>java.util.NoSuchElementException: No line found in run</message>
</record>
<record>
  <date>2017-08-24T17:43:10</date>
  <millis>1503592990715</millis>
  <sequence>6435</sequence>
  <logger></logger>
  <level>SEVERE</level>
  <class>java.util.logging.LogManager$RootLogger</class>
  <method>log</method>
  <thread>17</thread>
  <message>java.util.NoSuchElementException: No line found in run</message>
</record>
<record>
  <date>2017-08-24T17:43:10</date>
  <millis>1503592990748</millis>
  <sequence>6436</sequence>
  <logger></logger>
  <level>SEVERE</level>
  <class>java.util.logging.LogManager$RootLogger</class>
  <method>log</method>
  <thread>12</thread>
  <message>java.util.NoSuchElementException: No line found in run</message>
</record>
<record>
  <date>2017-08-24T17:43:10</date>
  <millis>1503592990781</millis>
  <sequence>6437</sequence>
  <logger></logger>
  <level>SEVERE</level>
  <class>java.util.logging.LogManager$RootLogger</class>
  <method>log</method>
  <thread>16</thread>
  <message>java.util.NoSuchElementException: No line found in run</message>
</record>
<record>
  <date>2017-08-24T17:43:10</date>
  <millis>1503592990815</millis>
  <sequence>6438</sequence>
  <logger></logger>
  <level>SEVERE</level>
  <class>java.util.logging.LogManager$RootLogger</class>
  <method>log</method>
  <thread>14</thread>
  <message>java.util.NoSuchElementException: No line found in run</message>
</record>
<record>
  <date>2017-08-24T17:43:10</date>
  <millis>1503592990896</millis>
  <sequence>6439</sequence>
  <logger></logger>
  <level>SEVERE</level>
  <class>java.util.logging.LogManager$RootLogger</class>
  <method>log</method>
  <thread>18</thread>
  <message>java.util.NoSuchElementException: No line found in run</message>
</record>
<record>
  <date>2017-08-24T17:43:10</date>
  <millis>1503592990998</millis>
  <sequence>6440</sequence>
  <logger></logger>
  <level>SEVERE</level>
  <class>java.util.logging.LogManager$RootLogger</class>
  <method>log</method>
  <thread>21</thread>
  <message>java.util.NoSuchElementException: No line found in run</message>
</record>
<record>
  <date>2017-08-24T17:43:11</date>
  <millis>1503592991041</millis>
  <sequence>6441</sequence>
  <logger></logger>
  <level>SEVERE</level>
  <class>java.util.logging.LogManager$RootLogger</class>
  <method>log</method>
  <thread>13</thread>
  <message>java.util.NoSuchElementException: No line found in run</message>
</record>
<record>
  <date>2017-08-24T17:43:11</date>
  <millis>1503592991084</millis>
  <sequence>6442</sequence>
  <logger></logger>
  <level>SEVERE</level>
  <class>java.util.logging.LogManager$RootLogger</class>
  <method>log</method>
  <thread>20</thread>
  <message>java.util.NoSuchElementException: No line found in run</message>
</record>
<record>
  <date>2017-08-24T17:43:11</date>
  <millis>1503592991121</millis>
  <sequence>6443</sequence>
  <logger></logger>
  <level>SEVERE</level>
  <class>java.util.logging.LogManager$RootLogger</class>
  <method>log</method>
  <thread>15</thread>
  <message>java.util.NoSuchElementException: No line found in run</message>
</record>
<record>
  <date>2017-08-24T17:43:11</date>
  <millis>1503592991155</millis>
  <sequence>6444</sequence>
  <logger></logger>
  <level>SEVERE</level>
  <class>java.util.logging.LogManager$RootLogger</class>
  <method>log</method>
  <thread>19</thread>
  <message>java.util.NoSuchElementException: No line found in run</message>
</record>
<record>
  <date>2017-08-24T17:43:11</date>
  <millis>1503592991197</millis>
  <sequence>6445</sequence>
  <logger></logger>
  <level>SEVERE</level>
  <class>java.util.logging.LogManager$RootLogger</class>
  <method>log</method>
  <thread>17</thread>
  <message>java.util.NoSuchElementException: No line found in run</message>
</record>
<record>
  <date>2017-08-24T17:43:11</date>
  <millis>1503592991286</millis>
  <sequence>6446</sequence>
  <logger></logger>
  <level>SEVERE</level>
  <class>java.util.logging.LogManager$RootLogger</class>
  <method>log</method>
  <thread>12</thread>
  <message>java.util.NoSuchElementException: No line found in run</message>
</record>
<record>
  <date>2017-08-24T17:43:11</date>
  <millis>1503592991383</millis>
  <sequence>6447</sequence>
  <logger></logger>
  <level>SEVERE</level>
  <class>java.util.logging.LogManager$RootLogger</class>
  <method>log</method>
  <thread>16</thread>
  <message>java.util.NoSuchElementException: No line found in run</message>
</record>
<record>
  <date>2017-08-24T17:43:11</date>
  <millis>1503592991411</millis>
  <sequence>6448</sequence>
  <logger></logger>
  <level>SEVERE</level>
  <class>java.util.logging.LogManager$RootLogger</class>
  <method>log</method>
  <thread>14</thread>
  <message>java.util.NoSuchElementException: No line found in run</message>
</record>
<record>
  <date>2017-08-24T17:43:11</date>
  <millis>1503592991449</millis>
  <sequence>6449</sequence>
  <logger></logger>
  <level>SEVERE</level>
  <class>java.util.logging.LogManager$RootLogger</class>
  <method>log</method>
  <thread>18</thread>
  <message>java.util.NoSuchElementException: No line found in run</message>
</record>
<record>
  <date>2017-08-24T17:43:11</date>
  <millis>1503592991493</millis>
  <sequence>6450</sequence>
  <logger></logger>
  <level>SEVERE</level>
  <class>java.util.logging.LogManager$RootLogger</class>
  <method>log</method>
  <thread>21</thread>
  <message>java.util.NoSuchElementException: No line found in run</message>
</record>
<record>
  <date>2017-08-24T17:43:11</date>
  <millis>1503592991536</millis>
  <sequence>6451</sequence>
  <logger></logger>
  <level>SEVERE</level>
  <class>java.util.logging.LogManager$RootLogger</class>
  <method>log</method>
  <thread>13</thread>
  <message>java.util.NoSuchElementException: No line found in run</message>
</record>
<record>
  <date>2017-08-24T17:43:11</date>
  <millis>1503592991573</millis>
  <sequence>6452</sequence>
  <logger></logger>
  <level>SEVERE</level>
  <class>java.util.logging.LogManager$RootLogger</class>
  <method>log</method>
  <thread>20</thread>
  <message>java.util.NoSuchElementException: No line found in run</message>
</record>
<record>
  <date>2017-08-24T17:43:11</date>
  <millis>1503592991606</millis>
  <sequence>6453</sequence>
  <logger></logger>
  <level>SEVERE</level>
  <class>java.util.logging.LogManager$RootLogger</class>
  <method>log</method>
  <thread>15</thread>
  <message>java.util.NoSuchElementException: No line found in run</message>
</record>
<record>
  <date>2017-08-24T17:43:11</date>
  <millis>1503592991761</millis>
  <sequence>6454</sequence>
  <logger></logger>
  <level>SEVERE</level>
  <class>java.util.logging.LogManager$RootLogger</class>
  <method>log</method>
  <thread>19</thread>
  <message>java.util.NoSuchElementException: No line found in run</message>
</record>
<record>
  <date>2017-08-24T17:43:11</date>
  <millis>1503592991804</millis>
  <sequence>6455</sequence>
  <logger></logger>
  <level>SEVERE</level>
  <class>java.util.logging.LogManager$RootLogger</class>
  <method>log</method>
  <thread>17</thread>
  <message>java.util.NoSuchElementException: No line found in run</message>
</record>
<record>
  <date>2017-08-24T17:43:11</date>
  <millis>1503592991846</millis>
  <sequence>6456</sequence>
  <logger></logger>
  <level>SEVERE</level>
  <class>java.util.logging.LogManager$RootLogger</class>
  <method>log</method>
  <thread>12</thread>
  <message>java.util.NoSuchElementException: No line found in run</message>
</record>
<record>
  <date>2017-08-24T17:43:11</date>
  <millis>1503592991889</millis>
  <sequence>6457</sequence>
  <logger></logger>
  <level>SEVERE</level>
  <class>java.util.logging.LogManager$RootLogger</class>
  <method>log</method>
  <thread>16</thread>
  <message>java.util.NoSuchElementException: No line found in run</message>
</record>
<record>
  <date>2017-08-24T17:43:11</date>
  <millis>1503592991931</millis>
  <sequence>6458</sequence>
  <logger></logger>
  <level>SEVERE</level>
  <class>java.util.logging.LogManager$RootLogger</class>
  <method>log</method>
  <thread>14</thread>
  <message>java.util.NoSuchElementException: No line found in run</message>
</record>
<record>
  <date>2017-08-24T17:43:11</date>
  <millis>1503592991964</millis>
  <sequence>6459</sequence>
  <logger></logger>
  <level>SEVERE</level>
  <class>java.util.logging.LogManager$RootLogger</class>
  <method>log</method>
  <thread>18</thread>
  <message>java.util.NoSuchElementException: No line found in run</message>
</record>
<record>
  <date>2017-08-24T17:43:12</date>
  <millis>1503592992007</millis>
  <sequence>6460</sequence>
  <logger></logger>
  <level>SEVERE</level>
  <class>java.util.logging.LogManager$RootLogger</class>
  <method>log</method>
  <thread>21</thread>
  <message>java.util.NoSuchElementException: No line found in run</message>
</record>
<record>
  <date>2017-08-24T17:43:12</date>
  <millis>1503592992046</millis>
  <sequence>6461</sequence>
  <logger></logger>
  <level>SEVERE</level>
  <class>java.util.logging.LogManager$RootLogger</class>
  <method>log</method>
  <thread>13</thread>
  <message>java.util.NoSuchElementException: No line found in run</message>
</record>
<record>
  <date>2017-08-24T17:43:12</date>
  <millis>1503592992177</millis>
  <sequence>6462</sequence>
  <logger></logger>
  <level>SEVERE</level>
  <class>java.util.logging.LogManager$RootLogger</class>
  <method>log</method>
  <thread>20</thread>
  <message>java.util.NoSuchElementException: No line found in run</message>
</record>
<record>
  <date>2017-08-24T17:43:12</date>
  <millis>1503592992216</millis>
  <sequence>6463</sequence>
  <logger></logger>
  <level>SEVERE</level>
  <class>java.util.logging.LogManager$RootLogger</class>
  <method>log</method>
  <thread>15</thread>
  <message>java.util.NoSuchElementException: No line found in run</message>
</record>
<record>
  <date>2017-08-24T17:43:12</date>
  <millis>1503592992249</millis>
  <sequence>6464</sequence>
  <logger></logger>
  <level>SEVERE</level>
  <class>java.util.logging.LogManager$RootLogger</class>
  <method>log</method>
  <thread>19</thread>
  <message>java.util.NoSuchElementException: No line found in run</message>
</record>
<record>
  <date>2017-08-24T17:43:12</date>
  <millis>1503592992282</millis>
  <sequence>6465</sequence>
  <logger></logger>
  <level>SEVERE</level>
  <class>java.util.logging.LogManager$RootLogger</class>
  <method>log</method>
  <thread>17</thread>
  <message>java.util.NoSuchElementException: No line found in run</message>
</record>
<record>
  <date>2017-08-24T17:43:12</date>
  <millis>1503592992326</millis>
  <sequence>6466</sequence>
  <logger></logger>
  <level>SEVERE</level>
  <class>java.util.logging.LogManager$RootLogger</class>
  <method>log</method>
  <thread>12</thread>
  <message>java.util.NoSuchElementException: No line found in run</message>
</record>
<record>
  <date>2017-08-24T17:43:12</date>
  <millis>1503592992371</millis>
  <sequence>6467</sequence>
  <logger></logger>
  <level>SEVERE</level>
  <class>java.util.logging.LogManager$RootLogger</class>
  <method>log</method>
  <thread>16</thread>
  <message>java.util.NoSuchElementException: No line found in run</message>
</record>
<record>
  <date>2017-08-24T17:43:12</date>
  <millis>1503592992405</millis>
  <sequence>6468</sequence>
  <logger></logger>
  <level>SEVERE</level>
  <class>java.util.logging.LogManager$RootLogger</class>
  <method>log</method>
  <thread>14</thread>
  <message>java.util.NoSuchElementException: No line found in run</message>
</record>
<record>
  <date>2017-08-24T17:43:12</date>
  <millis>1503592992448</millis>
  <sequence>6469</sequence>
  <logger></logger>
  <level>SEVERE</level>
  <class>java.util.logging.LogManager$RootLogger</class>
  <method>log</method>
  <thread>18</thread>
  <message>java.util.NoSuchElementException: No line found in run</message>
</record>
<record>
  <date>2017-08-24T17:43:12</date>
  <millis>1503592992586</millis>
  <sequence>6470</sequence>
  <logger></logger>
  <level>SEVERE</level>
  <class>java.util.logging.LogManager$RootLogger</class>
  <method>log</method>
  <thread>21</thread>
  <message>java.util.NoSuchElementException: No line found in run</message>
</record>
<record>
  <date>2017-08-24T17:43:12</date>
  <millis>1503592992629</millis>
  <sequence>6471</sequence>
  <logger></logger>
  <level>SEVERE</level>
  <class>java.util.logging.LogManager$RootLogger</class>
  <method>log</method>
  <thread>13</thread>
  <message>java.util.NoSuchElementException: No line found in run</message>
</record>
<record>
  <date>2017-08-24T17:43:12</date>
  <millis>1503592992657</millis>
  <sequence>6472</sequence>
  <logger></logger>
  <level>SEVERE</level>
  <class>java.util.logging.LogManager$RootLogger</class>
  <method>log</method>
  <thread>20</thread>
  <message>java.util.NoSuchElementException: No line found in run</message>
</record>
<record>
  <date>2017-08-24T17:43:12</date>
  <millis>1503592992700</millis>
  <sequence>6473</sequence>
  <logger></logger>
  <level>SEVERE</level>
  <class>java.util.logging.LogManager$RootLogger</class>
  <method>log</method>
  <thread>15</thread>
  <message>java.util.NoSuchElementException: No line found in run</message>
</record>
<record>
  <date>2017-08-24T17:43:12</date>
  <millis>1503592992734</millis>
  <sequence>6474</sequence>
  <logger></logger>
  <level>SEVERE</level>
  <class>java.util.logging.LogManager$RootLogger</class>
  <method>log</method>
  <thread>19</thread>
  <message>java.util.NoSuchElementException: No line found in run</message>
</record>
<record>
  <date>2017-08-24T17:43:12</date>
  <millis>1503592992777</millis>
  <sequence>6475</sequence>
  <logger></logger>
  <level>SEVERE</level>
  <class>java.util.logging.LogManager$RootLogger</class>
  <method>log</method>
  <thread>17</thread>
  <message>java.util.NoSuchElementException: No line found in run</message>
</record>
<record>
  <date>2017-08-24T17:43:12</date>
  <millis>1503592992819</millis>
  <sequence>6476</sequence>
  <logger></logger>
  <level>SEVERE</level>
  <class>java.util.logging.LogManager$RootLogger</class>
  <method>log</method>
  <thread>12</thread>
  <message>java.util.NoSuchElementException: No line found in run</message>
</record>
<record>
  <date>2017-08-24T17:43:12</date>
  <millis>1503592992852</millis>
  <sequence>6477</sequence>
  <logger></logger>
  <level>SEVERE</level>
  <class>java.util.logging.LogManager$RootLogger</class>
  <method>log</method>
  <thread>16</thread>
  <message>java.util.NoSuchElementException: No line found in run</message>
</record>
<record>
  <date>2017-08-24T17:43:12</date>
  <millis>1503592992887</millis>
  <sequence>6478</sequence>
  <logger></logger>
  <level>SEVERE</level>
  <class>java.util.logging.LogManager$RootLogger</class>
  <method>log</method>
  <thread>14</thread>
  <message>java.util.NoSuchElementException: No line found in run</message>
</record>
<record>
  <date>2017-08-24T17:43:12</date>
  <millis>1503592992964</millis>
  <sequence>6479</sequence>
  <logger></logger>
  <level>SEVERE</level>
  <class>java.util.logging.LogManager$RootLogger</class>
  <method>log</method>
  <thread>18</thread>
  <message>java.util.NoSuchElementException: No line found in run</message>
</record>
</log>
