<?xml version="1.0" encoding="windows-1252" standalone="no"?>
<!DOCTYPE log SYSTEM "logger.dtd">
<log>
<record>
  <date>2017-08-24T17:43:15</date>
  <millis>1503592995460</millis>
  <sequence>6528</sequence>
  <logger></logger>
  <level>SEVERE</level>
  <class>java.util.logging.LogManager$RootLogger</class>
  <method>log</method>
  <thread>14</thread>
  <message>java.util.NoSuchElementException: No line found in run</message>
</record>
<record>
  <date>2017-08-24T17:43:15</date>
  <millis>1503592995493</millis>
  <sequence>6529</sequence>
  <logger></logger>
  <level>SEVERE</level>
  <class>java.util.logging.LogManager$RootLogger</class>
  <method>log</method>
  <thread>18</thread>
  <message>java.util.NoSuchElementException: No line found in run</message>
</record>
<record>
  <date>2017-08-24T17:43:15</date>
  <millis>1503592995537</millis>
  <sequence>6530</sequence>
  <logger></logger>
  <level>SEVERE</level>
  <class>java.util.logging.LogManager$RootLogger</class>
  <method>log</method>
  <thread>18</thread>
  <message>java.util.NoSuchElementException: No line found in run</message>
</record>
<record>
  <date>2017-08-24T17:43:15</date>
  <millis>1503592995570</millis>
  <sequence>6531</sequence>
  <logger></logger>
  <level>SEVERE</level>
  <class>java.util.logging.LogManager$RootLogger</class>
  <method>log</method>
  <thread>13</thread>
  <message>java.util.NoSuchElementException: No line found in run</message>
</record>
<record>
  <date>2017-08-24T17:43:15</date>
  <millis>1503592995616</millis>
  <sequence>6532</sequence>
  <logger></logger>
  <level>SEVERE</level>
  <class>java.util.logging.LogManager$RootLogger</class>
  <method>log</method>
  <thread>20</thread>
  <message>java.util.NoSuchElementException: No line found in run</message>
</record>
<record>
  <date>2017-08-24T17:43:15</date>
  <millis>1503592995751</millis>
  <sequence>6533</sequence>
  <logger></logger>
  <level>SEVERE</level>
  <class>java.util.logging.LogManager$RootLogger</class>
  <method>log</method>
  <thread>15</thread>
  <message>java.util.NoSuchElementException: No line found in run</message>
</record>
<record>
  <date>2017-08-24T17:43:15</date>
  <millis>1503592995781</millis>
  <sequence>6534</sequence>
  <logger></logger>
  <level>SEVERE</level>
  <class>java.util.logging.LogManager$RootLogger</class>
  <method>log</method>
  <thread>19</thread>
  <message>java.util.NoSuchElementException: No line found in run</message>
</record>
<record>
  <date>2017-08-24T17:43:15</date>
  <millis>1503592995812</millis>
  <sequence>6535</sequence>
  <logger></logger>
  <level>SEVERE</level>
  <class>java.util.logging.LogManager$RootLogger</class>
  <method>log</method>
  <thread>17</thread>
  <message>java.util.NoSuchElementException: No line found in run</message>
</record>
<record>
  <date>2017-08-24T17:43:15</date>
  <millis>1503592995843</millis>
  <sequence>6536</sequence>
  <logger></logger>
  <level>SEVERE</level>
  <class>java.util.logging.LogManager$RootLogger</class>
  <method>log</method>
  <thread>12</thread>
  <message>java.util.NoSuchElementException: No line found in run</message>
</record>
<record>
  <date>2017-08-24T17:43:15</date>
  <millis>1503592995872</millis>
  <sequence>6537</sequence>
  <logger></logger>
  <level>SEVERE</level>
  <class>java.util.logging.LogManager$RootLogger</class>
  <method>log</method>
  <thread>16</thread>
  <message>java.util.NoSuchElementException: No line found in run</message>
</record>
<record>
  <date>2017-08-24T17:43:15</date>
  <millis>1503592995906</millis>
  <sequence>6538</sequence>
  <logger></logger>
  <level>SEVERE</level>
  <class>java.util.logging.LogManager$RootLogger</class>
  <method>log</method>
  <thread>14</thread>
  <message>java.util.NoSuchElementException: No line found in run</message>
</record>
<record>
  <date>2017-08-24T17:43:15</date>
  <millis>1503592995934</millis>
  <sequence>6539</sequence>
  <logger></logger>
  <level>SEVERE</level>
  <class>java.util.logging.LogManager$RootLogger</class>
  <method>log</method>
  <thread>21</thread>
  <message>java.util.NoSuchElementException: No line found in run</message>
</record>
<record>
  <date>2017-08-24T17:43:15</date>
  <millis>1503592995964</millis>
  <sequence>6540</sequence>
  <logger></logger>
  <level>SEVERE</level>
  <class>java.util.logging.LogManager$RootLogger</class>
  <method>log</method>
  <thread>18</thread>
  <message>java.util.NoSuchElementException: No line found in run</message>
</record>
<record>
  <date>2017-08-24T17:43:15</date>
  <millis>1503592995997</millis>
  <sequence>6541</sequence>
  <logger></logger>
  <level>SEVERE</level>
  <class>java.util.logging.LogManager$RootLogger</class>
  <method>log</method>
  <thread>13</thread>
  <message>java.util.NoSuchElementException: No line found in run</message>
</record>
<record>
  <date>2017-08-24T17:43:16</date>
  <millis>1503592996090</millis>
  <sequence>6542</sequence>
  <logger></logger>
  <level>SEVERE</level>
  <class>java.util.logging.LogManager$RootLogger</class>
  <method>log</method>
  <thread>20</thread>
  <message>java.util.NoSuchElementException: No line found in run</message>
</record>
<record>
  <date>2017-08-24T17:43:16</date>
  <millis>1503592996191</millis>
  <sequence>6543</sequence>
  <logger></logger>
  <level>SEVERE</level>
  <class>java.util.logging.LogManager$RootLogger</class>
  <method>log</method>
  <thread>15</thread>
  <message>java.util.NoSuchElementException: No line found in run</message>
</record>
<record>
  <date>2017-08-24T17:43:16</date>
  <millis>1503592996225</millis>
  <sequence>6544</sequence>
  <logger></logger>
  <level>SEVERE</level>
  <class>java.util.logging.LogManager$RootLogger</class>
  <method>log</method>
  <thread>19</thread>
  <message>java.util.NoSuchElementException: No line found in run</message>
</record>
<record>
  <date>2017-08-24T17:43:16</date>
  <millis>1503592996268</millis>
  <sequence>6545</sequence>
  <logger></logger>
  <level>SEVERE</level>
  <class>java.util.logging.LogManager$RootLogger</class>
  <method>log</method>
  <thread>17</thread>
  <message>java.util.NoSuchElementException: No line found in run</message>
</record>
<record>
  <date>2017-08-24T17:43:16</date>
  <millis>1503592996310</millis>
  <sequence>6546</sequence>
  <logger></logger>
  <level>SEVERE</level>
  <class>java.util.logging.LogManager$RootLogger</class>
  <method>log</method>
  <thread>12</thread>
  <message>java.util.NoSuchElementException: No line found in run</message>
</record>
<record>
  <date>2017-08-24T17:43:16</date>
  <millis>1503592996339</millis>
  <sequence>6547</sequence>
  <logger></logger>
  <level>SEVERE</level>
  <class>java.util.logging.LogManager$RootLogger</class>
  <method>log</method>
  <thread>16</thread>
  <message>java.util.NoSuchElementException: No line found in run</message>
</record>
<record>
  <date>2017-08-24T17:43:16</date>
  <millis>1503592996382</millis>
  <sequence>6548</sequence>
  <logger></logger>
  <level>SEVERE</level>
  <class>java.util.logging.LogManager$RootLogger</class>
  <method>log</method>
  <thread>14</thread>
  <message>java.util.NoSuchElementException: No line found in run</message>
</record>
<record>
  <date>2017-08-24T17:43:16</date>
  <millis>1503592996425</millis>
  <sequence>6549</sequence>
  <logger></logger>
  <level>SEVERE</level>
  <class>java.util.logging.LogManager$RootLogger</class>
  <method>log</method>
  <thread>21</thread>
  <message>java.util.NoSuchElementException: No line found in run</message>
</record>
<record>
  <date>2017-08-24T17:43:16</date>
  <millis>1503592996519</millis>
  <sequence>6550</sequence>
  <logger></logger>
  <level>SEVERE</level>
  <class>java.util.logging.LogManager$RootLogger</class>
  <method>log</method>
  <thread>18</thread>
  <message>java.util.NoSuchElementException: No line found in run</message>
</record>
<record>
  <date>2017-08-24T17:43:16</date>
  <millis>1503592996610</millis>
  <sequence>6551</sequence>
  <logger></logger>
  <level>SEVERE</level>
  <class>java.util.logging.LogManager$RootLogger</class>
  <method>log</method>
  <thread>13</thread>
  <message>java.util.NoSuchElementException: No line found in run</message>
</record>
<record>
  <date>2017-08-24T17:43:16</date>
  <millis>1503592996652</millis>
  <sequence>6552</sequence>
  <logger></logger>
  <level>SEVERE</level>
  <class>java.util.logging.LogManager$RootLogger</class>
  <method>log</method>
  <thread>20</thread>
  <message>java.util.NoSuchElementException: No line found in run</message>
</record>
<record>
  <date>2017-08-24T17:43:16</date>
  <millis>1503592996695</millis>
  <sequence>6553</sequence>
  <logger></logger>
  <level>SEVERE</level>
  <class>java.util.logging.LogManager$RootLogger</class>
  <method>log</method>
  <thread>15</thread>
  <message>java.util.NoSuchElementException: No line found in run</message>
</record>
<record>
  <date>2017-08-24T17:43:16</date>
  <millis>1503592996728</millis>
  <sequence>6554</sequence>
  <logger></logger>
  <level>SEVERE</level>
  <class>java.util.logging.LogManager$RootLogger</class>
  <method>log</method>
  <thread>19</thread>
  <message>java.util.NoSuchElementException: No line found in run</message>
</record>
<record>
  <date>2017-08-24T17:43:16</date>
  <millis>1503592996761</millis>
  <sequence>6555</sequence>
  <logger></logger>
  <level>SEVERE</level>
  <class>java.util.logging.LogManager$RootLogger</class>
  <method>log</method>
  <thread>17</thread>
  <message>java.util.NoSuchElementException: No line found in run</message>
</record>
<record>
  <date>2017-08-24T17:43:16</date>
  <millis>1503592996804</millis>
  <sequence>6556</sequence>
  <logger></logger>
  <level>SEVERE</level>
  <class>java.util.logging.LogManager$RootLogger</class>
  <method>log</method>
  <thread>12</thread>
  <message>java.util.NoSuchElementException: No line found in run</message>
</record>
<record>
  <date>2017-08-24T17:43:16</date>
  <millis>1503592996848</millis>
  <sequence>6557</sequence>
  <logger></logger>
  <level>SEVERE</level>
  <class>java.util.logging.LogManager$RootLogger</class>
  <method>log</method>
  <thread>16</thread>
  <message>java.util.NoSuchElementException: No line found in run</message>
</record>
<record>
  <date>2017-08-24T17:43:16</date>
  <millis>1503592996930</millis>
  <sequence>6558</sequence>
  <logger></logger>
  <level>SEVERE</level>
  <class>java.util.logging.LogManager$RootLogger</class>
  <method>log</method>
  <thread>14</thread>
  <message>java.util.NoSuchElementException: No line found in run</message>
</record>
<record>
  <date>2017-08-24T17:43:17</date>
  <millis>1503592997001</millis>
  <sequence>6559</sequence>
  <logger></logger>
  <level>SEVERE</level>
  <class>java.util.logging.LogManager$RootLogger</class>
  <method>log</method>
  <thread>21</thread>
  <message>java.util.NoSuchElementException: No line found in run</message>
</record>
<record>
  <date>2017-08-24T17:43:17</date>
  <millis>1503592997036</millis>
  <sequence>6560</sequence>
  <logger></logger>
  <level>SEVERE</level>
  <class>java.util.logging.LogManager$RootLogger</class>
  <method>log</method>
  <thread>18</thread>
  <message>java.util.NoSuchElementException: No line found in run</message>
</record>
<record>
  <date>2017-08-24T17:43:17</date>
  <millis>1503592997080</millis>
  <sequence>6561</sequence>
  <logger></logger>
  <level>SEVERE</level>
  <class>java.util.logging.LogManager$RootLogger</class>
  <method>log</method>
  <thread>13</thread>
  <message>java.util.NoSuchElementException: No line found in run</message>
</record>
<record>
  <date>2017-08-24T17:43:17</date>
  <millis>1503592997124</millis>
  <sequence>6562</sequence>
  <logger></logger>
  <level>SEVERE</level>
  <class>java.util.logging.LogManager$RootLogger</class>
  <method>log</method>
  <thread>20</thread>
  <message>java.util.NoSuchElementException: No line found in run</message>
</record>
<record>
  <date>2017-08-24T17:43:17</date>
  <millis>1503592997162</millis>
  <sequence>6563</sequence>
  <logger></logger>
  <level>SEVERE</level>
  <class>java.util.logging.LogManager$RootLogger</class>
  <method>log</method>
  <thread>15</thread>
  <message>java.util.NoSuchElementException: No line found in run</message>
</record>
<record>
  <date>2017-08-24T17:43:17</date>
  <millis>1503592997205</millis>
  <sequence>6564</sequence>
  <logger></logger>
  <level>SEVERE</level>
  <class>java.util.logging.LogManager$RootLogger</class>
  <method>log</method>
  <thread>19</thread>
  <message>java.util.NoSuchElementException: No line found in run</message>
</record>
<record>
  <date>2017-08-24T17:43:17</date>
  <millis>1503592997247</millis>
  <sequence>6565</sequence>
  <logger></logger>
  <level>SEVERE</level>
  <class>java.util.logging.LogManager$RootLogger</class>
  <method>log</method>
  <thread>17</thread>
  <message>java.util.NoSuchElementException: No line found in run</message>
</record>
<record>
  <date>2017-08-24T17:43:17</date>
  <millis>1503592997285</millis>
  <sequence>6566</sequence>
  <logger></logger>
  <level>SEVERE</level>
  <class>java.util.logging.LogManager$RootLogger</class>
  <method>log</method>
  <thread>12</thread>
  <message>java.util.NoSuchElementException: No line found in run</message>
</record>
<record>
  <date>2017-08-24T17:43:17</date>
  <millis>1503592997415</millis>
  <sequence>6567</sequence>
  <logger></logger>
  <level>SEVERE</level>
  <class>java.util.logging.LogManager$RootLogger</class>
  <method>log</method>
  <thread>16</thread>
  <message>java.util.NoSuchElementException: No line found in run</message>
</record>
<record>
  <date>2017-08-24T17:43:17</date>
  <millis>1503592997458</millis>
  <sequence>6568</sequence>
  <logger></logger>
  <level>SEVERE</level>
  <class>java.util.logging.LogManager$RootLogger</class>
  <method>log</method>
  <thread>14</thread>
  <message>java.util.NoSuchElementException: No line found in run</message>
</record>
<record>
  <date>2017-08-24T17:43:17</date>
  <millis>1503592997500</millis>
  <sequence>6569</sequence>
  <logger></logger>
  <level>SEVERE</level>
  <class>java.util.logging.LogManager$RootLogger</class>
  <method>log</method>
  <thread>21</thread>
  <message>java.util.NoSuchElementException: No line found in run</message>
</record>
<record>
  <date>2017-08-24T17:43:17</date>
  <millis>1503592997542</millis>
  <sequence>6570</sequence>
  <logger></logger>
  <level>SEVERE</level>
  <class>java.util.logging.LogManager$RootLogger</class>
  <method>log</method>
  <thread>18</thread>
  <message>java.util.NoSuchElementException: No line found in run</message>
</record>
<record>
  <date>2017-08-24T17:43:17</date>
  <millis>1503592997579</millis>
  <sequence>6571</sequence>
  <logger></logger>
  <level>SEVERE</level>
  <class>java.util.logging.LogManager$RootLogger</class>
  <method>log</method>
  <thread>13</thread>
  <message>java.util.NoSuchElementException: No line found in run</message>
</record>
<record>
  <date>2017-08-24T17:43:17</date>
  <millis>1503592997612</millis>
  <sequence>6572</sequence>
  <logger></logger>
  <level>SEVERE</level>
  <class>java.util.logging.LogManager$RootLogger</class>
  <method>log</method>
  <thread>20</thread>
  <message>java.util.NoSuchElementException: No line found in run</message>
</record>
<record>
  <date>2017-08-24T17:43:17</date>
  <millis>1503592997645</millis>
  <sequence>6573</sequence>
  <logger></logger>
  <level>SEVERE</level>
  <class>java.util.logging.LogManager$RootLogger</class>
  <method>log</method>
  <thread>15</thread>
  <message>java.util.NoSuchElementException: No line found in run</message>
</record>
<record>
  <date>2017-08-24T17:43:17</date>
  <millis>1503592997679</millis>
  <sequence>6574</sequence>
  <logger></logger>
  <level>SEVERE</level>
  <class>java.util.logging.LogManager$RootLogger</class>
  <method>log</method>
  <thread>19</thread>
  <message>java.util.NoSuchElementException: No line found in run</message>
</record>
<record>
  <date>2017-08-24T17:43:17</date>
  <millis>1503592997768</millis>
  <sequence>6575</sequence>
  <logger></logger>
  <level>SEVERE</level>
  <class>java.util.logging.LogManager$RootLogger</class>
  <method>log</method>
  <thread>17</thread>
  <message>java.util.NoSuchElementException: No line found in run</message>
</record>
</log>
