<?xml version="1.0" encoding="windows-1252" standalone="no"?>
<!DOCTYPE log SYSTEM "logger.dtd">
<log>
<record>
  <date>2017-08-25T11:24:52</date>
  <millis>1503656692052</millis>
  <sequence>6720</sequence>
  <logger></logger>
  <level>SEVERE</level>
  <class>java.util.logging.LogManager$RootLogger</class>
  <method>log</method>
  <thread>18</thread>
  <message>java.util.NoSuchElementException: No line found in run</message>
</record>
<record>
  <date>2017-08-25T11:24:52</date>
  <millis>1503656692114</millis>
  <sequence>6721</sequence>
  <logger></logger>
  <level>SEVERE</level>
  <class>java.util.logging.LogManager$RootLogger</class>
  <method>log</method>
  <thread>13</thread>
  <message>java.util.NoSuchElementException: No line found in run</message>
</record>
<record>
  <date>2017-08-25T11:24:52</date>
  <millis>1503656692137</millis>
  <sequence>6722</sequence>
  <logger></logger>
  <level>SEVERE</level>
  <class>java.util.logging.LogManager$RootLogger</class>
  <method>log</method>
  <thread>14</thread>
  <message>java.util.NoSuchElementException: No line found in run</message>
</record>
<record>
  <date>2017-08-25T11:24:52</date>
  <millis>1503656692178</millis>
  <sequence>6723</sequence>
  <logger></logger>
  <level>SEVERE</level>
  <class>java.util.logging.LogManager$RootLogger</class>
  <method>log</method>
  <thread>16</thread>
  <message>java.util.NoSuchElementException: No line found in run</message>
</record>
<record>
  <date>2017-08-25T11:24:52</date>
  <millis>1503656692209</millis>
  <sequence>6724</sequence>
  <logger></logger>
  <level>SEVERE</level>
  <class>java.util.logging.LogManager$RootLogger</class>
  <method>log</method>
  <thread>12</thread>
  <message>java.util.NoSuchElementException: No line found in run</message>
</record>
<record>
  <date>2017-08-25T11:24:52</date>
  <millis>1503656692255</millis>
  <sequence>6725</sequence>
  <logger></logger>
  <level>SEVERE</level>
  <class>java.util.logging.LogManager$RootLogger</class>
  <method>log</method>
  <thread>17</thread>
  <message>java.util.NoSuchElementException: No line found in run</message>
</record>
<record>
  <date>2017-08-25T11:24:52</date>
  <millis>1503656692314</millis>
  <sequence>6726</sequence>
  <logger></logger>
  <level>SEVERE</level>
  <class>java.util.logging.LogManager$RootLogger</class>
  <method>log</method>
  <thread>19</thread>
  <message>java.util.NoSuchElementException: No line found in run</message>
</record>
<record>
  <date>2017-08-25T11:24:52</date>
  <millis>1503656692340</millis>
  <sequence>6727</sequence>
  <logger></logger>
  <level>SEVERE</level>
  <class>java.util.logging.LogManager$RootLogger</class>
  <method>log</method>
  <thread>15</thread>
  <message>java.util.NoSuchElementException: No line found in run</message>
</record>
<record>
  <date>2017-08-25T11:24:52</date>
  <millis>1503656692383</millis>
  <sequence>6728</sequence>
  <logger></logger>
  <level>SEVERE</level>
  <class>java.util.logging.LogManager$RootLogger</class>
  <method>log</method>
  <thread>20</thread>
  <message>java.util.NoSuchElementException: No line found in run</message>
</record>
<record>
  <date>2017-08-25T11:24:52</date>
  <millis>1503656692434</millis>
  <sequence>6729</sequence>
  <logger></logger>
  <level>SEVERE</level>
  <class>java.util.logging.LogManager$RootLogger</class>
  <method>log</method>
  <thread>21</thread>
  <message>java.util.NoSuchElementException: No line found in run</message>
</record>
<record>
  <date>2017-08-25T11:24:52</date>
  <millis>1503656692495</millis>
  <sequence>6730</sequence>
  <logger></logger>
  <level>SEVERE</level>
  <class>java.util.logging.LogManager$RootLogger</class>
  <method>log</method>
  <thread>18</thread>
  <message>java.util.NoSuchElementException: No line found in run</message>
</record>
<record>
  <date>2017-08-25T11:24:52</date>
  <millis>1503656692527</millis>
  <sequence>6731</sequence>
  <logger></logger>
  <level>SEVERE</level>
  <class>java.util.logging.LogManager$RootLogger</class>
  <method>log</method>
  <thread>13</thread>
  <message>java.util.NoSuchElementException: No line found in run</message>
</record>
<record>
  <date>2017-08-25T11:24:52</date>
  <millis>1503656692552</millis>
  <sequence>6732</sequence>
  <logger></logger>
  <level>SEVERE</level>
  <class>java.util.logging.LogManager$RootLogger</class>
  <method>log</method>
  <thread>14</thread>
  <message>java.util.NoSuchElementException: No line found in run</message>
</record>
<record>
  <date>2017-08-25T11:24:52</date>
  <millis>1503656692587</millis>
  <sequence>6733</sequence>
  <logger></logger>
  <level>SEVERE</level>
  <class>java.util.logging.LogManager$RootLogger</class>
  <method>log</method>
  <thread>16</thread>
  <message>java.util.NoSuchElementException: No line found in run</message>
</record>
<record>
  <date>2017-08-25T11:24:52</date>
  <millis>1503656692630</millis>
  <sequence>6734</sequence>
  <logger></logger>
  <level>SEVERE</level>
  <class>java.util.logging.LogManager$RootLogger</class>
  <method>log</method>
  <thread>12</thread>
  <message>java.util.NoSuchElementException: No line found in run</message>
</record>
<record>
  <date>2017-08-25T11:24:52</date>
  <millis>1503656692664</millis>
  <sequence>6735</sequence>
  <logger></logger>
  <level>SEVERE</level>
  <class>java.util.logging.LogManager$RootLogger</class>
  <method>log</method>
  <thread>17</thread>
  <message>java.util.NoSuchElementException: No line found in run</message>
</record>
<record>
  <date>2017-08-25T11:24:52</date>
  <millis>1503656692719</millis>
  <sequence>6736</sequence>
  <logger></logger>
  <level>SEVERE</level>
  <class>java.util.logging.LogManager$RootLogger</class>
  <method>log</method>
  <thread>19</thread>
  <message>java.util.NoSuchElementException: No line found in run</message>
</record>
<record>
  <date>2017-08-25T11:24:52</date>
  <millis>1503656692738</millis>
  <sequence>6737</sequence>
  <logger></logger>
  <level>SEVERE</level>
  <class>java.util.logging.LogManager$RootLogger</class>
  <method>log</method>
  <thread>15</thread>
  <message>java.util.NoSuchElementException: No line found in run</message>
</record>
<record>
  <date>2017-08-25T11:24:52</date>
  <millis>1503656692789</millis>
  <sequence>6738</sequence>
  <logger></logger>
  <level>SEVERE</level>
  <class>java.util.logging.LogManager$RootLogger</class>
  <method>log</method>
  <thread>20</thread>
  <message>java.util.NoSuchElementException: No line found in run</message>
</record>
<record>
  <date>2017-08-25T11:24:52</date>
  <millis>1503656692844</millis>
  <sequence>6739</sequence>
  <logger></logger>
  <level>SEVERE</level>
  <class>java.util.logging.LogManager$RootLogger</class>
  <method>log</method>
  <thread>21</thread>
  <message>java.util.NoSuchElementException: No line found in run</message>
</record>
<record>
  <date>2017-08-25T11:24:52</date>
  <millis>1503656692887</millis>
  <sequence>6740</sequence>
  <logger></logger>
  <level>SEVERE</level>
  <class>java.util.logging.LogManager$RootLogger</class>
  <method>log</method>
  <thread>18</thread>
  <message>java.util.NoSuchElementException: No line found in run</message>
</record>
<record>
  <date>2017-08-25T11:24:52</date>
  <millis>1503656692924</millis>
  <sequence>6741</sequence>
  <logger></logger>
  <level>SEVERE</level>
  <class>java.util.logging.LogManager$RootLogger</class>
  <method>log</method>
  <thread>13</thread>
  <message>java.util.NoSuchElementException: No line found in run</message>
</record>
<record>
  <date>2017-08-25T11:24:52</date>
  <millis>1503656692967</millis>
  <sequence>6742</sequence>
  <logger></logger>
  <level>SEVERE</level>
  <class>java.util.logging.LogManager$RootLogger</class>
  <method>log</method>
  <thread>14</thread>
  <message>java.util.NoSuchElementException: No line found in run</message>
</record>
<record>
  <date>2017-08-25T11:24:53</date>
  <millis>1503656693004</millis>
  <sequence>6743</sequence>
  <logger></logger>
  <level>SEVERE</level>
  <class>java.util.logging.LogManager$RootLogger</class>
  <method>log</method>
  <thread>16</thread>
  <message>java.util.NoSuchElementException: No line found in run</message>
</record>
<record>
  <date>2017-08-25T11:24:53</date>
  <millis>1503656693046</millis>
  <sequence>6744</sequence>
  <logger></logger>
  <level>SEVERE</level>
  <class>java.util.logging.LogManager$RootLogger</class>
  <method>log</method>
  <thread>12</thread>
  <message>java.util.NoSuchElementException: No line found in run</message>
</record>
<record>
  <date>2017-08-25T11:24:53</date>
  <millis>1503656693080</millis>
  <sequence>6745</sequence>
  <logger></logger>
  <level>SEVERE</level>
  <class>java.util.logging.LogManager$RootLogger</class>
  <method>log</method>
  <thread>17</thread>
  <message>java.util.NoSuchElementException: No line found in run</message>
</record>
<record>
  <date>2017-08-25T11:24:53</date>
  <millis>1503656693114</millis>
  <sequence>6746</sequence>
  <logger></logger>
  <level>SEVERE</level>
  <class>java.util.logging.LogManager$RootLogger</class>
  <method>log</method>
  <thread>19</thread>
  <message>java.util.NoSuchElementException: No line found in run</message>
</record>
<record>
  <date>2017-08-25T11:24:53</date>
  <millis>1503656693197</millis>
  <sequence>6747</sequence>
  <logger></logger>
  <level>SEVERE</level>
  <class>java.util.logging.LogManager$RootLogger</class>
  <method>log</method>
  <thread>15</thread>
  <message>java.util.NoSuchElementException: No line found in run</message>
</record>
<record>
  <date>2017-08-25T11:24:53</date>
  <millis>1503656693231</millis>
  <sequence>6748</sequence>
  <logger></logger>
  <level>SEVERE</level>
  <class>java.util.logging.LogManager$RootLogger</class>
  <method>log</method>
  <thread>20</thread>
  <message>java.util.NoSuchElementException: No line found in run</message>
</record>
<record>
  <date>2017-08-25T11:24:53</date>
  <millis>1503656693268</millis>
  <sequence>6749</sequence>
  <logger></logger>
  <level>SEVERE</level>
  <class>java.util.logging.LogManager$RootLogger</class>
  <method>log</method>
  <thread>21</thread>
  <message>java.util.NoSuchElementException: No line found in run</message>
</record>
<record>
  <date>2017-08-25T11:24:53</date>
  <millis>1503656693329</millis>
  <sequence>6750</sequence>
  <logger></logger>
  <level>SEVERE</level>
  <class>java.util.logging.LogManager$RootLogger</class>
  <method>log</method>
  <thread>18</thread>
  <message>java.util.NoSuchElementException: No line found in run</message>
</record>
<record>
  <date>2017-08-25T11:24:53</date>
  <millis>1503656693354</millis>
  <sequence>6751</sequence>
  <logger></logger>
  <level>SEVERE</level>
  <class>java.util.logging.LogManager$RootLogger</class>
  <method>log</method>
  <thread>13</thread>
  <message>java.util.NoSuchElementException: No line found in run</message>
</record>
<record>
  <date>2017-08-25T11:24:53</date>
  <millis>1503656693389</millis>
  <sequence>6752</sequence>
  <logger></logger>
  <level>SEVERE</level>
  <class>java.util.logging.LogManager$RootLogger</class>
  <method>log</method>
  <thread>14</thread>
  <message>java.util.NoSuchElementException: No line found in run</message>
</record>
<record>
  <date>2017-08-25T11:24:53</date>
  <millis>1503656693433</millis>
  <sequence>6753</sequence>
  <logger></logger>
  <level>SEVERE</level>
  <class>java.util.logging.LogManager$RootLogger</class>
  <method>log</method>
  <thread>16</thread>
  <message>java.util.NoSuchElementException: No line found in run</message>
</record>
<record>
  <date>2017-08-25T11:24:53</date>
  <millis>1503656693467</millis>
  <sequence>6754</sequence>
  <logger></logger>
  <level>SEVERE</level>
  <class>java.util.logging.LogManager$RootLogger</class>
  <method>log</method>
  <thread>12</thread>
  <message>java.util.NoSuchElementException: No line found in run</message>
</record>
<record>
  <date>2017-08-25T11:24:53</date>
  <millis>1503656693529</millis>
  <sequence>6755</sequence>
  <logger></logger>
  <level>SEVERE</level>
  <class>java.util.logging.LogManager$RootLogger</class>
  <method>log</method>
  <thread>17</thread>
  <message>java.util.NoSuchElementException: No line found in run</message>
</record>
<record>
  <date>2017-08-25T11:24:53</date>
  <millis>1503656693562</millis>
  <sequence>6756</sequence>
  <logger></logger>
  <level>SEVERE</level>
  <class>java.util.logging.LogManager$RootLogger</class>
  <method>log</method>
  <thread>19</thread>
  <message>java.util.NoSuchElementException: No line found in run</message>
</record>
<record>
  <date>2017-08-25T11:24:53</date>
  <millis>1503656693596</millis>
  <sequence>6757</sequence>
  <logger></logger>
  <level>SEVERE</level>
  <class>java.util.logging.LogManager$RootLogger</class>
  <method>log</method>
  <thread>15</thread>
  <message>java.util.NoSuchElementException: No line found in run</message>
</record>
<record>
  <date>2017-08-25T11:24:53</date>
  <millis>1503656693676</millis>
  <sequence>6758</sequence>
  <logger></logger>
  <level>SEVERE</level>
  <class>java.util.logging.LogManager$RootLogger</class>
  <method>log</method>
  <thread>20</thread>
  <message>java.util.NoSuchElementException: No line found in run</message>
</record>
<record>
  <date>2017-08-25T11:24:53</date>
  <millis>1503656693715</millis>
  <sequence>6759</sequence>
  <logger></logger>
  <level>SEVERE</level>
  <class>java.util.logging.LogManager$RootLogger</class>
  <method>log</method>
  <thread>21</thread>
  <message>java.util.NoSuchElementException: No line found in run</message>
</record>
<record>
  <date>2017-08-25T11:24:53</date>
  <millis>1503656693749</millis>
  <sequence>6760</sequence>
  <logger></logger>
  <level>SEVERE</level>
  <class>java.util.logging.LogManager$RootLogger</class>
  <method>log</method>
  <thread>18</thread>
  <message>java.util.NoSuchElementException: No line found in run</message>
</record>
<record>
  <date>2017-08-25T11:24:53</date>
  <millis>1503656693797</millis>
  <sequence>6761</sequence>
  <logger></logger>
  <level>SEVERE</level>
  <class>java.util.logging.LogManager$RootLogger</class>
  <method>log</method>
  <thread>13</thread>
  <message>java.util.NoSuchElementException: No line found in run</message>
</record>
<record>
  <date>2017-08-25T11:24:53</date>
  <millis>1503656693840</millis>
  <sequence>6762</sequence>
  <logger></logger>
  <level>SEVERE</level>
  <class>java.util.logging.LogManager$RootLogger</class>
  <method>log</method>
  <thread>14</thread>
  <message>java.util.NoSuchElementException: No line found in run</message>
</record>
<record>
  <date>2017-08-25T11:24:53</date>
  <millis>1503656693871</millis>
  <sequence>6763</sequence>
  <logger></logger>
  <level>SEVERE</level>
  <class>java.util.logging.LogManager$RootLogger</class>
  <method>log</method>
  <thread>16</thread>
  <message>java.util.NoSuchElementException: No line found in run</message>
</record>
<record>
  <date>2017-08-25T11:24:53</date>
  <millis>1503656693908</millis>
  <sequence>6764</sequence>
  <logger></logger>
  <level>SEVERE</level>
  <class>java.util.logging.LogManager$RootLogger</class>
  <method>log</method>
  <thread>12</thread>
  <message>java.util.NoSuchElementException: No line found in run</message>
</record>
<record>
  <date>2017-08-25T11:24:53</date>
  <millis>1503656693958</millis>
  <sequence>6765</sequence>
  <logger></logger>
  <level>SEVERE</level>
  <class>java.util.logging.LogManager$RootLogger</class>
  <method>log</method>
  <thread>17</thread>
  <message>java.util.NoSuchElementException: No line found in run</message>
</record>
<record>
  <date>2017-08-25T11:24:53</date>
  <millis>1503656693984</millis>
  <sequence>6766</sequence>
  <logger></logger>
  <level>SEVERE</level>
  <class>java.util.logging.LogManager$RootLogger</class>
  <method>log</method>
  <thread>19</thread>
  <message>java.util.NoSuchElementException: No line found in run</message>
</record>
<record>
  <date>2017-08-25T11:24:54</date>
  <millis>1503656694038</millis>
  <sequence>6767</sequence>
  <logger></logger>
  <level>SEVERE</level>
  <class>java.util.logging.LogManager$RootLogger</class>
  <method>log</method>
  <thread>15</thread>
  <message>java.util.NoSuchElementException: No line found in run</message>
</record>
</log>
