<?xml version="1.0" encoding="windows-1252" standalone="no"?>
<!DOCTYPE log SYSTEM "logger.dtd">
<log>
<record>
  <date>2017-08-24T16:47:31</date>
  <millis>1503589651244</millis>
  <sequence>6384</sequence>
  <logger></logger>
  <level>SEVERE</level>
  <class>java.util.logging.LogManager$RootLogger</class>
  <method>log</method>
  <thread>17</thread>
  <message>java.util.NoSuchElementException: No line found in run</message>
</record>
<record>
  <date>2017-08-24T16:47:31</date>
  <millis>1503589651279</millis>
  <sequence>6385</sequence>
  <logger></logger>
  <level>SEVERE</level>
  <class>java.util.logging.LogManager$RootLogger</class>
  <method>log</method>
  <thread>13</thread>
  <message>java.util.NoSuchElementException: No line found in run</message>
</record>
<record>
  <date>2017-08-24T16:47:31</date>
  <millis>1503589651324</millis>
  <sequence>6386</sequence>
  <logger></logger>
  <level>SEVERE</level>
  <class>java.util.logging.LogManager$RootLogger</class>
  <method>log</method>
  <thread>18</thread>
  <message>java.util.NoSuchElementException: No line found in run</message>
</record>
<record>
  <date>2017-08-24T16:47:31</date>
  <millis>1503589651358</millis>
  <sequence>6387</sequence>
  <logger></logger>
  <level>SEVERE</level>
  <class>java.util.logging.LogManager$RootLogger</class>
  <method>log</method>
  <thread>19</thread>
  <message>java.util.NoSuchElementException: No line found in run</message>
</record>
<record>
  <date>2017-08-24T16:47:31</date>
  <millis>1503589651404</millis>
  <sequence>6388</sequence>
  <logger></logger>
  <level>SEVERE</level>
  <class>java.util.logging.LogManager$RootLogger</class>
  <method>log</method>
  <thread>14</thread>
  <message>java.util.NoSuchElementException: No line found in run</message>
</record>
<record>
  <date>2017-08-24T16:47:31</date>
  <millis>1503589651438</millis>
  <sequence>6389</sequence>
  <logger></logger>
  <level>SEVERE</level>
  <class>java.util.logging.LogManager$RootLogger</class>
  <method>log</method>
  <thread>12</thread>
  <message>java.util.NoSuchElementException: No line found in run</message>
</record>
<record>
  <date>2017-08-24T16:47:31</date>
  <millis>1503589651482</millis>
  <sequence>6390</sequence>
  <logger></logger>
  <level>SEVERE</level>
  <class>java.util.logging.LogManager$RootLogger</class>
  <method>log</method>
  <thread>16</thread>
  <message>java.util.NoSuchElementException: No line found in run</message>
</record>
<record>
  <date>2017-08-24T17:30:02</date>
  <millis>1503592202023</millis>
  <sequence>6391</sequence>
  <logger></logger>
  <level>SEVERE</level>
  <class>java.util.logging.LogManager$RootLogger</class>
  <method>log</method>
  <thread>21</thread>
  <message>java.util.NoSuchElementException: No line found in run</message>
</record>
<record>
  <date>2017-08-24T17:30:02</date>
  <millis>1503592202024</millis>
  <sequence>6392</sequence>
  <logger></logger>
  <level>SEVERE</level>
  <class>java.util.logging.LogManager$RootLogger</class>
  <method>log</method>
  <thread>12</thread>
  <message>java.util.NoSuchElementException: No line found in run</message>
</record>
<record>
  <date>2017-08-24T17:30:02</date>
  <millis>1503592202024</millis>
  <sequence>6393</sequence>
  <logger></logger>
  <level>SEVERE</level>
  <class>java.util.logging.LogManager$RootLogger</class>
  <method>log</method>
  <thread>14</thread>
  <message>java.util.NoSuchElementException: No line found in run</message>
</record>
<record>
  <date>2017-08-24T17:30:02</date>
  <millis>1503592202024</millis>
  <sequence>6394</sequence>
  <logger></logger>
  <level>SEVERE</level>
  <class>java.util.logging.LogManager$RootLogger</class>
  <method>log</method>
  <thread>19</thread>
  <message>java.util.NoSuchElementException: No line found in run</message>
</record>
<record>
  <date>2017-08-24T17:30:02</date>
  <millis>1503592202025</millis>
  <sequence>6395</sequence>
  <logger></logger>
  <level>SEVERE</level>
  <class>java.util.logging.LogManager$RootLogger</class>
  <method>log</method>
  <thread>18</thread>
  <message>java.util.NoSuchElementException: No line found in run</message>
</record>
<record>
  <date>2017-08-24T17:30:02</date>
  <millis>1503592202025</millis>
  <sequence>6396</sequence>
  <logger></logger>
  <level>SEVERE</level>
  <class>java.util.logging.LogManager$RootLogger</class>
  <method>log</method>
  <thread>13</thread>
  <message>java.util.NoSuchElementException: No line found in run</message>
</record>
<record>
  <date>2017-08-24T17:30:02</date>
  <millis>1503592202045</millis>
  <sequence>6397</sequence>
  <logger></logger>
  <level>SEVERE</level>
  <class>java.util.logging.LogManager$RootLogger</class>
  <method>log</method>
  <thread>17</thread>
  <message>java.util.NoSuchElementException: No line found in run</message>
</record>
<record>
  <date>2017-08-24T17:30:02</date>
  <millis>1503592202045</millis>
  <sequence>6398</sequence>
  <logger></logger>
  <level>SEVERE</level>
  <class>java.util.logging.LogManager$RootLogger</class>
  <method>log</method>
  <thread>21</thread>
  <message>java.util.NoSuchElementException: No line found in run</message>
</record>
<record>
  <date>2017-08-24T17:30:02</date>
  <millis>1503592202045</millis>
  <sequence>6399</sequence>
  <logger></logger>
  <level>SEVERE</level>
  <class>java.util.logging.LogManager$RootLogger</class>
  <method>log</method>
  <thread>20</thread>
  <message>java.util.NoSuchElementException: No line found in run</message>
</record>
<record>
  <date>2017-08-24T17:30:02</date>
  <millis>1503592202046</millis>
  <sequence>6400</sequence>
  <logger></logger>
  <level>SEVERE</level>
  <class>java.util.logging.LogManager$RootLogger</class>
  <method>log</method>
  <thread>15</thread>
  <message>java.util.NoSuchElementException: No line found in run</message>
</record>
<record>
  <date>2017-08-24T17:30:02</date>
  <millis>1503592202054</millis>
  <sequence>6401</sequence>
  <logger></logger>
  <level>SEVERE</level>
  <class>java.util.logging.LogManager$RootLogger</class>
  <method>log</method>
  <thread>12</thread>
  <message>java.util.NoSuchElementException: No line found in run</message>
</record>
<record>
  <date>2017-08-24T17:30:02</date>
  <millis>1503592202055</millis>
  <sequence>6402</sequence>
  <logger></logger>
  <level>SEVERE</level>
  <class>java.util.logging.LogManager$RootLogger</class>
  <method>log</method>
  <thread>17</thread>
  <message>java.util.NoSuchElementException: No line found in run</message>
</record>
<record>
  <date>2017-08-24T17:30:02</date>
  <millis>1503592202056</millis>
  <sequence>6403</sequence>
  <logger></logger>
  <level>SEVERE</level>
  <class>java.util.logging.LogManager$RootLogger</class>
  <method>log</method>
  <thread>13</thread>
  <message>java.util.NoSuchElementException: No line found in run</message>
</record>
<record>
  <date>2017-08-24T17:30:02</date>
  <millis>1503592202056</millis>
  <sequence>6404</sequence>
  <logger></logger>
  <level>SEVERE</level>
  <class>java.util.logging.LogManager$RootLogger</class>
  <method>log</method>
  <thread>14</thread>
  <message>java.util.NoSuchElementException: No line found in run</message>
</record>
<record>
  <date>2017-08-24T17:30:02</date>
  <millis>1503592202057</millis>
  <sequence>6405</sequence>
  <logger></logger>
  <level>SEVERE</level>
  <class>java.util.logging.LogManager$RootLogger</class>
  <method>log</method>
  <thread>12</thread>
  <message>java.util.NoSuchElementException: No line found in run</message>
</record>
<record>
  <date>2017-08-24T17:30:02</date>
  <millis>1503592202059</millis>
  <sequence>6406</sequence>
  <logger></logger>
  <level>SEVERE</level>
  <class>java.util.logging.LogManager$RootLogger</class>
  <method>log</method>
  <thread>17</thread>
  <message>java.util.NoSuchElementException: No line found in run</message>
</record>
<record>
  <date>2017-08-24T17:30:02</date>
  <millis>1503592202060</millis>
  <sequence>6407</sequence>
  <logger></logger>
  <level>SEVERE</level>
  <class>java.util.logging.LogManager$RootLogger</class>
  <method>log</method>
  <thread>14</thread>
  <message>java.util.NoSuchElementException: No line found in run</message>
</record>
<record>
  <date>2017-08-24T17:30:02</date>
  <millis>1503592202061</millis>
  <sequence>6408</sequence>
  <logger></logger>
  <level>SEVERE</level>
  <class>java.util.logging.LogManager$RootLogger</class>
  <method>log</method>
  <thread>13</thread>
  <message>java.util.NoSuchElementException: No line found in run</message>
</record>
<record>
  <date>2017-08-24T17:30:02</date>
  <millis>1503592202061</millis>
  <sequence>6409</sequence>
  <logger></logger>
  <level>SEVERE</level>
  <class>java.util.logging.LogManager$RootLogger</class>
  <method>log</method>
  <thread>12</thread>
  <message>java.util.NoSuchElementException: No line found in run</message>
</record>
<record>
  <date>2017-08-24T17:30:02</date>
  <millis>1503592202062</millis>
  <sequence>6410</sequence>
  <logger></logger>
  <level>SEVERE</level>
  <class>java.util.logging.LogManager$RootLogger</class>
  <method>log</method>
  <thread>17</thread>
  <message>java.util.NoSuchElementException: No line found in run</message>
</record>
<record>
  <date>2017-08-24T17:30:02</date>
  <millis>1503592202063</millis>
  <sequence>6411</sequence>
  <logger></logger>
  <level>SEVERE</level>
  <class>java.util.logging.LogManager$RootLogger</class>
  <method>log</method>
  <thread>14</thread>
  <message>java.util.NoSuchElementException: No line found in run</message>
</record>
<record>
  <date>2017-08-24T17:30:02</date>
  <millis>1503592202067</millis>
  <sequence>6412</sequence>
  <logger></logger>
  <level>SEVERE</level>
  <class>java.util.logging.LogManager$RootLogger</class>
  <method>log</method>
  <thread>13</thread>
  <message>java.util.NoSuchElementException: No line found in run</message>
</record>
<record>
  <date>2017-08-24T17:30:02</date>
  <millis>1503592202068</millis>
  <sequence>6413</sequence>
  <logger></logger>
  <level>SEVERE</level>
  <class>java.util.logging.LogManager$RootLogger</class>
  <method>log</method>
  <thread>21</thread>
  <message>java.util.NoSuchElementException: No line found in run</message>
</record>
<record>
  <date>2017-08-24T17:30:02</date>
  <millis>1503592202070</millis>
  <sequence>6414</sequence>
  <logger></logger>
  <level>SEVERE</level>
  <class>java.util.logging.LogManager$RootLogger</class>
  <method>log</method>
  <thread>14</thread>
  <message>java.util.NoSuchElementException: No line found in run</message>
</record>
<record>
  <date>2017-08-24T17:30:02</date>
  <millis>1503592202071</millis>
  <sequence>6415</sequence>
  <logger></logger>
  <level>SEVERE</level>
  <class>java.util.logging.LogManager$RootLogger</class>
  <method>log</method>
  <thread>19</thread>
  <message>java.util.NoSuchElementException: No line found in run</message>
</record>
<record>
  <date>2017-08-24T17:30:02</date>
  <millis>1503592202072</millis>
  <sequence>6416</sequence>
  <logger></logger>
  <level>SEVERE</level>
  <class>java.util.logging.LogManager$RootLogger</class>
  <method>log</method>
  <thread>17</thread>
  <message>java.util.NoSuchElementException: No line found in run</message>
</record>
<record>
  <date>2017-08-24T17:30:02</date>
  <millis>1503592202074</millis>
  <sequence>6417</sequence>
  <logger></logger>
  <level>SEVERE</level>
  <class>java.util.logging.LogManager$RootLogger</class>
  <method>log</method>
  <thread>12</thread>
  <message>java.util.NoSuchElementException: No line found in run</message>
</record>
<record>
  <date>2017-08-24T17:30:02</date>
  <millis>1503592202074</millis>
  <sequence>6418</sequence>
  <logger></logger>
  <level>SEVERE</level>
  <class>java.util.logging.LogManager$RootLogger</class>
  <method>log</method>
  <thread>14</thread>
  <message>java.util.NoSuchElementException: No line found in run</message>
</record>
<record>
  <date>2017-08-24T17:30:02</date>
  <millis>1503592202074</millis>
  <sequence>6419</sequence>
  <logger></logger>
  <level>SEVERE</level>
  <class>java.util.logging.LogManager$RootLogger</class>
  <method>log</method>
  <thread>18</thread>
  <message>java.util.NoSuchElementException: No line found in run</message>
</record>
<record>
  <date>2017-08-24T17:30:02</date>
  <millis>1503592202074</millis>
  <sequence>6420</sequence>
  <logger></logger>
  <level>SEVERE</level>
  <class>java.util.logging.LogManager$RootLogger</class>
  <method>log</method>
  <thread>21</thread>
  <message>java.util.NoSuchElementException: No line found in run</message>
</record>
<record>
  <date>2017-08-24T17:30:02</date>
  <millis>1503592202075</millis>
  <sequence>6421</sequence>
  <logger></logger>
  <level>SEVERE</level>
  <class>java.util.logging.LogManager$RootLogger</class>
  <method>log</method>
  <thread>13</thread>
  <message>java.util.NoSuchElementException: No line found in run</message>
</record>
<record>
  <date>2017-08-24T17:30:02</date>
  <millis>1503592202075</millis>
  <sequence>6422</sequence>
  <logger></logger>
  <level>SEVERE</level>
  <class>java.util.logging.LogManager$RootLogger</class>
  <method>log</method>
  <thread>20</thread>
  <message>java.util.NoSuchElementException: No line found in run</message>
</record>
<record>
  <date>2017-08-24T17:30:02</date>
  <millis>1503592202075</millis>
  <sequence>6423</sequence>
  <logger></logger>
  <level>SEVERE</level>
  <class>java.util.logging.LogManager$RootLogger</class>
  <method>log</method>
  <thread>15</thread>
  <message>java.util.NoSuchElementException: No line found in run</message>
</record>
<record>
  <date>2017-08-24T17:30:02</date>
  <millis>1503592202075</millis>
  <sequence>6424</sequence>
  <logger></logger>
  <level>SEVERE</level>
  <class>java.util.logging.LogManager$RootLogger</class>
  <method>log</method>
  <thread>19</thread>
  <message>java.util.NoSuchElementException: No line found in run</message>
</record>
<record>
  <date>2017-08-24T17:30:02</date>
  <millis>1503592202076</millis>
  <sequence>6425</sequence>
  <logger></logger>
  <level>SEVERE</level>
  <class>java.util.logging.LogManager$RootLogger</class>
  <method>log</method>
  <thread>17</thread>
  <message>java.util.NoSuchElementException: No line found in run</message>
</record>
<record>
  <date>2017-08-24T17:30:02</date>
  <millis>1503592202077</millis>
  <sequence>6426</sequence>
  <logger></logger>
  <level>SEVERE</level>
  <class>java.util.logging.LogManager$RootLogger</class>
  <method>log</method>
  <thread>12</thread>
  <message>java.util.NoSuchElementException: No line found in run</message>
</record>
<record>
  <date>2017-08-24T17:30:02</date>
  <millis>1503592202205</millis>
  <sequence>6427</sequence>
  <logger></logger>
  <level>SEVERE</level>
  <class>java.util.logging.LogManager$RootLogger</class>
  <method>log</method>
  <thread>16</thread>
  <message>java.util.NoSuchElementException: No line found in run</message>
</record>
<record>
  <date>2017-08-24T17:43:10</date>
  <millis>1503592990359</millis>
  <sequence>6428</sequence>
  <logger></logger>
  <level>SEVERE</level>
  <class>java.util.logging.LogManager$RootLogger</class>
  <method>log</method>
  <thread>14</thread>
  <message>java.util.NoSuchElementException: No line found in run</message>
</record>
<record>
  <date>2017-08-24T17:43:10</date>
  <millis>1503592990393</millis>
  <sequence>6429</sequence>
  <logger></logger>
  <level>SEVERE</level>
  <class>java.util.logging.LogManager$RootLogger</class>
  <method>log</method>
  <thread>18</thread>
  <message>java.util.NoSuchElementException: No line found in run</message>
</record>
<record>
  <date>2017-08-24T17:43:10</date>
  <millis>1503592990488</millis>
  <sequence>6430</sequence>
  <logger></logger>
  <level>SEVERE</level>
  <class>java.util.logging.LogManager$RootLogger</class>
  <method>log</method>
  <thread>21</thread>
  <message>java.util.NoSuchElementException: No line found in run</message>
</record>
<record>
  <date>2017-08-24T17:43:10</date>
  <millis>1503592990566</millis>
  <sequence>6431</sequence>
  <logger></logger>
  <level>SEVERE</level>
  <class>java.util.logging.LogManager$RootLogger</class>
  <method>log</method>
  <thread>13</thread>
  <message>java.util.NoSuchElementException: No line found in run</message>
</record>
</log>
