<?xml version="1.0" encoding="windows-1252" standalone="no"?>
<!DOCTYPE log SYSTEM "logger.dtd">
<log>
<record>
  <date>2017-08-25T11:24:49</date>
  <millis>1503656689938</millis>
  <sequence>6672</sequence>
  <logger></logger>
  <level>SEVERE</level>
  <class>java.util.logging.LogManager$RootLogger</class>
  <method>log</method>
  <thread>14</thread>
  <message>java.util.NoSuchElementException: No line found in run</message>
</record>
<record>
  <date>2017-08-25T11:24:49</date>
  <millis>1503656689981</millis>
  <sequence>6673</sequence>
  <logger></logger>
  <level>SEVERE</level>
  <class>java.util.logging.LogManager$RootLogger</class>
  <method>log</method>
  <thread>16</thread>
  <message>java.util.NoSuchElementException: No line found in run</message>
</record>
<record>
  <date>2017-08-25T11:24:50</date>
  <millis>1503656690013</millis>
  <sequence>6674</sequence>
  <logger></logger>
  <level>SEVERE</level>
  <class>java.util.logging.LogManager$RootLogger</class>
  <method>log</method>
  <thread>12</thread>
  <message>java.util.NoSuchElementException: No line found in run</message>
</record>
<record>
  <date>2017-08-25T11:24:50</date>
  <millis>1503656690042</millis>
  <sequence>6675</sequence>
  <logger></logger>
  <level>SEVERE</level>
  <class>java.util.logging.LogManager$RootLogger</class>
  <method>log</method>
  <thread>17</thread>
  <message>java.util.NoSuchElementException: No line found in run</message>
</record>
<record>
  <date>2017-08-25T11:24:50</date>
  <millis>1503656690075</millis>
  <sequence>6676</sequence>
  <logger></logger>
  <level>SEVERE</level>
  <class>java.util.logging.LogManager$RootLogger</class>
  <method>log</method>
  <thread>19</thread>
  <message>java.util.NoSuchElementException: No line found in run</message>
</record>
<record>
  <date>2017-08-25T11:24:50</date>
  <millis>1503656690119</millis>
  <sequence>6677</sequence>
  <logger></logger>
  <level>SEVERE</level>
  <class>java.util.logging.LogManager$RootLogger</class>
  <method>log</method>
  <thread>15</thread>
  <message>java.util.NoSuchElementException: No line found in run</message>
</record>
<record>
  <date>2017-08-25T11:24:50</date>
  <millis>1503656690167</millis>
  <sequence>6678</sequence>
  <logger></logger>
  <level>SEVERE</level>
  <class>java.util.logging.LogManager$RootLogger</class>
  <method>log</method>
  <thread>20</thread>
  <message>java.util.NoSuchElementException: No line found in run</message>
</record>
<record>
  <date>2017-08-25T11:24:50</date>
  <millis>1503656690216</millis>
  <sequence>6679</sequence>
  <logger></logger>
  <level>SEVERE</level>
  <class>java.util.logging.LogManager$RootLogger</class>
  <method>log</method>
  <thread>21</thread>
  <message>java.util.NoSuchElementException: No line found in run</message>
</record>
<record>
  <date>2017-08-25T11:24:50</date>
  <millis>1503656690257</millis>
  <sequence>6680</sequence>
  <logger></logger>
  <level>SEVERE</level>
  <class>java.util.logging.LogManager$RootLogger</class>
  <method>log</method>
  <thread>18</thread>
  <message>java.util.NoSuchElementException: No line found in run</message>
</record>
<record>
  <date>2017-08-25T11:24:50</date>
  <millis>1503656690300</millis>
  <sequence>6681</sequence>
  <logger></logger>
  <level>SEVERE</level>
  <class>java.util.logging.LogManager$RootLogger</class>
  <method>log</method>
  <thread>13</thread>
  <message>java.util.NoSuchElementException: No line found in run</message>
</record>
<record>
  <date>2017-08-25T11:24:50</date>
  <millis>1503656690350</millis>
  <sequence>6682</sequence>
  <logger></logger>
  <level>SEVERE</level>
  <class>java.util.logging.LogManager$RootLogger</class>
  <method>log</method>
  <thread>14</thread>
  <message>java.util.NoSuchElementException: No line found in run</message>
</record>
<record>
  <date>2017-08-25T11:24:50</date>
  <millis>1503656690381</millis>
  <sequence>6683</sequence>
  <logger></logger>
  <level>SEVERE</level>
  <class>java.util.logging.LogManager$RootLogger</class>
  <method>log</method>
  <thread>16</thread>
  <message>java.util.NoSuchElementException: No line found in run</message>
</record>
<record>
  <date>2017-08-25T11:24:50</date>
  <millis>1503656690423</millis>
  <sequence>6684</sequence>
  <logger></logger>
  <level>SEVERE</level>
  <class>java.util.logging.LogManager$RootLogger</class>
  <method>log</method>
  <thread>12</thread>
  <message>java.util.NoSuchElementException: No line found in run</message>
</record>
<record>
  <date>2017-08-25T11:24:50</date>
  <millis>1503656690451</millis>
  <sequence>6685</sequence>
  <logger></logger>
  <level>SEVERE</level>
  <class>java.util.logging.LogManager$RootLogger</class>
  <method>log</method>
  <thread>17</thread>
  <message>java.util.NoSuchElementException: No line found in run</message>
</record>
<record>
  <date>2017-08-25T11:24:50</date>
  <millis>1503656690492</millis>
  <sequence>6686</sequence>
  <logger></logger>
  <level>SEVERE</level>
  <class>java.util.logging.LogManager$RootLogger</class>
  <method>log</method>
  <thread>19</thread>
  <message>java.util.NoSuchElementException: No line found in run</message>
</record>
<record>
  <date>2017-08-25T11:24:50</date>
  <millis>1503656690535</millis>
  <sequence>6687</sequence>
  <logger></logger>
  <level>SEVERE</level>
  <class>java.util.logging.LogManager$RootLogger</class>
  <method>log</method>
  <thread>15</thread>
  <message>java.util.NoSuchElementException: No line found in run</message>
</record>
<record>
  <date>2017-08-25T11:24:50</date>
  <millis>1503656690628</millis>
  <sequence>6688</sequence>
  <logger></logger>
  <level>SEVERE</level>
  <class>java.util.logging.LogManager$RootLogger</class>
  <method>log</method>
  <thread>20</thread>
  <message>java.util.NoSuchElementException: No line found in run</message>
</record>
<record>
  <date>2017-08-25T11:24:50</date>
  <millis>1503656690675</millis>
  <sequence>6689</sequence>
  <logger></logger>
  <level>SEVERE</level>
  <class>java.util.logging.LogManager$RootLogger</class>
  <method>log</method>
  <thread>21</thread>
  <message>java.util.NoSuchElementException: No line found in run</message>
</record>
<record>
  <date>2017-08-25T11:24:50</date>
  <millis>1503656690717</millis>
  <sequence>6690</sequence>
  <logger></logger>
  <level>SEVERE</level>
  <class>java.util.logging.LogManager$RootLogger</class>
  <method>log</method>
  <thread>18</thread>
  <message>java.util.NoSuchElementException: No line found in run</message>
</record>
<record>
  <date>2017-08-25T11:24:50</date>
  <millis>1503656690740</millis>
  <sequence>6691</sequence>
  <logger></logger>
  <level>SEVERE</level>
  <class>java.util.logging.LogManager$RootLogger</class>
  <method>log</method>
  <thread>13</thread>
  <message>java.util.NoSuchElementException: No line found in run</message>
</record>
<record>
  <date>2017-08-25T11:24:50</date>
  <millis>1503656690791</millis>
  <sequence>6692</sequence>
  <logger></logger>
  <level>SEVERE</level>
  <class>java.util.logging.LogManager$RootLogger</class>
  <method>log</method>
  <thread>14</thread>
  <message>java.util.NoSuchElementException: No line found in run</message>
</record>
<record>
  <date>2017-08-25T11:24:50</date>
  <millis>1503656690821</millis>
  <sequence>6693</sequence>
  <logger></logger>
  <level>SEVERE</level>
  <class>java.util.logging.LogManager$RootLogger</class>
  <method>log</method>
  <thread>16</thread>
  <message>java.util.NoSuchElementException: No line found in run</message>
</record>
<record>
  <date>2017-08-25T11:24:50</date>
  <millis>1503656690872</millis>
  <sequence>6694</sequence>
  <logger></logger>
  <level>SEVERE</level>
  <class>java.util.logging.LogManager$RootLogger</class>
  <method>log</method>
  <thread>12</thread>
  <message>java.util.NoSuchElementException: No line found in run</message>
</record>
<record>
  <date>2017-08-25T11:24:50</date>
  <millis>1503656690916</millis>
  <sequence>6695</sequence>
  <logger></logger>
  <level>SEVERE</level>
  <class>java.util.logging.LogManager$RootLogger</class>
  <method>log</method>
  <thread>17</thread>
  <message>java.util.NoSuchElementException: No line found in run</message>
</record>
<record>
  <date>2017-08-25T11:24:51</date>
  <millis>1503656691000</millis>
  <sequence>6696</sequence>
  <logger></logger>
  <level>SEVERE</level>
  <class>java.util.logging.LogManager$RootLogger</class>
  <method>log</method>
  <thread>19</thread>
  <message>java.util.NoSuchElementException: No line found in run</message>
</record>
<record>
  <date>2017-08-25T11:24:51</date>
  <millis>1503656691063</millis>
  <sequence>6697</sequence>
  <logger></logger>
  <level>SEVERE</level>
  <class>java.util.logging.LogManager$RootLogger</class>
  <method>log</method>
  <thread>15</thread>
  <message>java.util.NoSuchElementException: No line found in run</message>
</record>
<record>
  <date>2017-08-25T11:24:51</date>
  <millis>1503656691095</millis>
  <sequence>6698</sequence>
  <logger></logger>
  <level>SEVERE</level>
  <class>java.util.logging.LogManager$RootLogger</class>
  <method>log</method>
  <thread>20</thread>
  <message>java.util.NoSuchElementException: No line found in run</message>
</record>
<record>
  <date>2017-08-25T11:24:51</date>
  <millis>1503656691155</millis>
  <sequence>6699</sequence>
  <logger></logger>
  <level>SEVERE</level>
  <class>java.util.logging.LogManager$RootLogger</class>
  <method>log</method>
  <thread>21</thread>
  <message>java.util.NoSuchElementException: No line found in run</message>
</record>
<record>
  <date>2017-08-25T11:24:51</date>
  <millis>1503656691176</millis>
  <sequence>6700</sequence>
  <logger></logger>
  <level>SEVERE</level>
  <class>java.util.logging.LogManager$RootLogger</class>
  <method>log</method>
  <thread>18</thread>
  <message>java.util.NoSuchElementException: No line found in run</message>
</record>
<record>
  <date>2017-08-25T11:24:51</date>
  <millis>1503656691209</millis>
  <sequence>6701</sequence>
  <logger></logger>
  <level>SEVERE</level>
  <class>java.util.logging.LogManager$RootLogger</class>
  <method>log</method>
  <thread>13</thread>
  <message>java.util.NoSuchElementException: No line found in run</message>
</record>
<record>
  <date>2017-08-25T11:24:51</date>
  <millis>1503656691252</millis>
  <sequence>6702</sequence>
  <logger></logger>
  <level>SEVERE</level>
  <class>java.util.logging.LogManager$RootLogger</class>
  <method>log</method>
  <thread>14</thread>
  <message>java.util.NoSuchElementException: No line found in run</message>
</record>
<record>
  <date>2017-08-25T11:24:51</date>
  <millis>1503656691291</millis>
  <sequence>6703</sequence>
  <logger></logger>
  <level>SEVERE</level>
  <class>java.util.logging.LogManager$RootLogger</class>
  <method>log</method>
  <thread>16</thread>
  <message>java.util.NoSuchElementException: No line found in run</message>
</record>
<record>
  <date>2017-08-25T11:24:51</date>
  <millis>1503656691325</millis>
  <sequence>6704</sequence>
  <logger></logger>
  <level>SEVERE</level>
  <class>java.util.logging.LogManager$RootLogger</class>
  <method>log</method>
  <thread>12</thread>
  <message>java.util.NoSuchElementException: No line found in run</message>
</record>
<record>
  <date>2017-08-25T11:24:51</date>
  <millis>1503656691421</millis>
  <sequence>6705</sequence>
  <logger></logger>
  <level>SEVERE</level>
  <class>java.util.logging.LogManager$RootLogger</class>
  <method>log</method>
  <thread>17</thread>
  <message>java.util.NoSuchElementException: No line found in run</message>
</record>
<record>
  <date>2017-08-25T11:24:51</date>
  <millis>1503656691461</millis>
  <sequence>6706</sequence>
  <logger></logger>
  <level>SEVERE</level>
  <class>java.util.logging.LogManager$RootLogger</class>
  <method>log</method>
  <thread>19</thread>
  <message>java.util.NoSuchElementException: No line found in run</message>
</record>
<record>
  <date>2017-08-25T11:24:51</date>
  <millis>1503656691505</millis>
  <sequence>6707</sequence>
  <logger></logger>
  <level>SEVERE</level>
  <class>java.util.logging.LogManager$RootLogger</class>
  <method>log</method>
  <thread>15</thread>
  <message>java.util.NoSuchElementException: No line found in run</message>
</record>
<record>
  <date>2017-08-25T11:24:51</date>
  <millis>1503656691554</millis>
  <sequence>6708</sequence>
  <logger></logger>
  <level>SEVERE</level>
  <class>java.util.logging.LogManager$RootLogger</class>
  <method>log</method>
  <thread>20</thread>
  <message>java.util.NoSuchElementException: No line found in run</message>
</record>
<record>
  <date>2017-08-25T11:24:51</date>
  <millis>1503656691586</millis>
  <sequence>6709</sequence>
  <logger></logger>
  <level>SEVERE</level>
  <class>java.util.logging.LogManager$RootLogger</class>
  <method>log</method>
  <thread>21</thread>
  <message>java.util.NoSuchElementException: No line found in run</message>
</record>
<record>
  <date>2017-08-25T11:24:51</date>
  <millis>1503656691629</millis>
  <sequence>6710</sequence>
  <logger></logger>
  <level>SEVERE</level>
  <class>java.util.logging.LogManager$RootLogger</class>
  <method>log</method>
  <thread>18</thread>
  <message>java.util.NoSuchElementException: No line found in run</message>
</record>
<record>
  <date>2017-08-25T11:24:51</date>
  <millis>1503656691671</millis>
  <sequence>6711</sequence>
  <logger></logger>
  <level>SEVERE</level>
  <class>java.util.logging.LogManager$RootLogger</class>
  <method>log</method>
  <thread>13</thread>
  <message>java.util.NoSuchElementException: No line found in run</message>
</record>
<record>
  <date>2017-08-25T11:24:51</date>
  <millis>1503656691762</millis>
  <sequence>6712</sequence>
  <logger></logger>
  <level>SEVERE</level>
  <class>java.util.logging.LogManager$RootLogger</class>
  <method>log</method>
  <thread>14</thread>
  <message>java.util.NoSuchElementException: No line found in run</message>
</record>
<record>
  <date>2017-08-25T11:24:51</date>
  <millis>1503656691801</millis>
  <sequence>6713</sequence>
  <logger></logger>
  <level>SEVERE</level>
  <class>java.util.logging.LogManager$RootLogger</class>
  <method>log</method>
  <thread>16</thread>
  <message>java.util.NoSuchElementException: No line found in run</message>
</record>
<record>
  <date>2017-08-25T11:24:51</date>
  <millis>1503656691842</millis>
  <sequence>6714</sequence>
  <logger></logger>
  <level>SEVERE</level>
  <class>java.util.logging.LogManager$RootLogger</class>
  <method>log</method>
  <thread>12</thread>
  <message>java.util.NoSuchElementException: No line found in run</message>
</record>
<record>
  <date>2017-08-25T11:24:51</date>
  <millis>1503656691889</millis>
  <sequence>6715</sequence>
  <logger></logger>
  <level>SEVERE</level>
  <class>java.util.logging.LogManager$RootLogger</class>
  <method>log</method>
  <thread>17</thread>
  <message>java.util.NoSuchElementException: No line found in run</message>
</record>
<record>
  <date>2017-08-25T11:24:51</date>
  <millis>1503656691910</millis>
  <sequence>6716</sequence>
  <logger></logger>
  <level>SEVERE</level>
  <class>java.util.logging.LogManager$RootLogger</class>
  <method>log</method>
  <thread>19</thread>
  <message>java.util.NoSuchElementException: No line found in run</message>
</record>
<record>
  <date>2017-08-25T11:24:51</date>
  <millis>1503656691942</millis>
  <sequence>6717</sequence>
  <logger></logger>
  <level>SEVERE</level>
  <class>java.util.logging.LogManager$RootLogger</class>
  <method>log</method>
  <thread>15</thread>
  <message>java.util.NoSuchElementException: No line found in run</message>
</record>
<record>
  <date>2017-08-25T11:24:51</date>
  <millis>1503656691973</millis>
  <sequence>6718</sequence>
  <logger></logger>
  <level>SEVERE</level>
  <class>java.util.logging.LogManager$RootLogger</class>
  <method>log</method>
  <thread>20</thread>
  <message>java.util.NoSuchElementException: No line found in run</message>
</record>
<record>
  <date>2017-08-25T11:24:52</date>
  <millis>1503656692015</millis>
  <sequence>6719</sequence>
  <logger></logger>
  <level>SEVERE</level>
  <class>java.util.logging.LogManager$RootLogger</class>
  <method>log</method>
  <thread>21</thread>
  <message>java.util.NoSuchElementException: No line found in run</message>
</record>
</log>
