<?xml version="1.0" encoding="UTF-8" standalone="no"?>
<!DOCTYPE log SYSTEM "logger.dtd">
<log>
<record>
  <date>2018-09-10T14:11:59.317754Z</date>
  <millis>1536588719317</millis>
  <nanos>754000</nanos>
  <sequence>0</sequence>
  <logger></logger>
  <level>INFO</level>
  <class>uk.ac.ncl.ndjc9.ClassroomVoting.Generator</class>
  <method>main</method>
  <thread>1</thread>
  <message>Started-new</message>
</record>
<record>
  <date>2018-09-10T14:12:34.215458Z</date>
  <millis>1536588754215</millis>
  <nanos>458000</nanos>
  <sequence>1</sequence>
  <logger></logger>
  <level>INFO</level>
  <class>uk.ac.ncl.ndjc9.ClassroomVoting.Generator</class>
  <method>run</method>
  <thread>11</thread>
  <message>start:1536588754215</message>
</record>
<record>
  <date>2018-09-10T14:12:50.885417Z</date>
  <millis>1536588770885</millis>
  <nanos>417000</nanos>
  <sequence>2</sequence>
  <logger></logger>
  <level>INFO</level>
  <class>uk.ac.ncl.ndjc9.ClassroomVoting.Generator</class>
  <method>run</method>
  <thread>11</thread>
  <message>1: end time:1536588770885</message>
</record>
</log>
