<?xml version="1.0" encoding="UTF-8" standalone="no"?>
<!DOCTYPE log SYSTEM "logger.dtd">
<log>
<record>
  <date>2018-09-25T12:30:05.800409Z</date>
  <millis>1537878605800</millis>
  <nanos>409000</nanos>
  <sequence>0</sequence>
  <logger></logger>
  <level>INFO</level>
  <class>uk.ac.ncl.ndjc9.ClassroomVoting.Generator</class>
  <method>main</method>
  <thread>1</thread>
  <message>Started-new</message>
</record>
<record>
  <date>2018-09-25T13:13:39.731276Z</date>
  <millis>1537881219731</millis>
  <nanos>276000</nanos>
  <sequence>1</sequence>
  <logger></logger>
  <level>INFO</level>
  <class>uk.ac.ncl.ndjc9.ClassroomVoting.Generator</class>
  <method>run</method>
  <thread>11</thread>
  <message>start:1537881219731</message>
</record>
<record>
  <date>2018-09-25T13:14:04.719440Z</date>
  <millis>1537881244719</millis>
  <nanos>440000</nanos>
  <sequence>2</sequence>
  <logger></logger>
  <level>INFO</level>
  <class>uk.ac.ncl.ndjc9.ClassroomVoting.Generator</class>
  <method>run</method>
  <thread>11</thread>
  <message>5: end time:1537881244719</message>
</record>
<record>
  <date>2018-09-25T13:15:03.550548Z</date>
  <millis>1537881303550</millis>
  <nanos>548000</nanos>
  <sequence>3</sequence>
  <logger></logger>
  <level>INFO</level>
  <class>uk.ac.ncl.ndjc9.ClassroomVoting.Generator</class>
  <method>run</method>
  <thread>11</thread>
  <message>start:1537881303550</message>
</record>
<record>
  <date>2018-09-25T13:15:23.033824Z</date>
  <millis>1537881323033</millis>
  <nanos>824000</nanos>
  <sequence>4</sequence>
  <logger></logger>
  <level>INFO</level>
  <class>uk.ac.ncl.ndjc9.ClassroomVoting.Generator</class>
  <method>run</method>
  <thread>11</thread>
  <message>6: end time:1537881323033</message>
</record>
<record>
  <date>2018-09-25T13:41:39.522004Z</date>
  <millis>1537882899522</millis>
  <nanos>4000</nanos>
  <sequence>5</sequence>
  <logger></logger>
  <level>INFO</level>
  <class>uk.ac.ncl.ndjc9.ClassroomVoting.Generator</class>
  <method>run</method>
  <thread>11</thread>
  <message>start:1537882899521</message>
</record>
<record>
  <date>2018-09-25T13:41:54.882808Z</date>
  <millis>1537882914882</millis>
  <nanos>808000</nanos>
  <sequence>6</sequence>
  <logger></logger>
  <level>INFO</level>
  <class>uk.ac.ncl.ndjc9.ClassroomVoting.Generator</class>
  <method>run</method>
  <thread>11</thread>
  <message>7: end time:1537882914882</message>
</record>
<record>
  <date>2018-09-28T12:36:14.409834Z</date>
  <millis>1538138174409</millis>
  <nanos>834000</nanos>
  <sequence>7</sequence>
  <logger></logger>
  <level>INFO</level>
  <class>uk.ac.ncl.ndjc9.ClassroomVoting.Generator</class>
  <method>run</method>
  <thread>11</thread>
  <message>start:1538138174402</message>
</record>
<record>
  <date>2018-09-28T12:36:14.593433Z</date>
  <millis>1538138174593</millis>
  <nanos>433000</nanos>
  <sequence>8</sequence>
  <logger></logger>
  <level>SEVERE</level>
  <class>uk.ac.ncl.ndjc9.ClassroomVoting.Generator</class>
  <method>run</method>
  <thread>11</thread>
  <message>java.sql.SQLException: Access denied for user 'root'@'localhost' (using password: YES)</message>
</record>
<record>
  <date>2018-09-28T12:37:39.141333Z</date>
  <millis>1538138259141</millis>
  <nanos>333000</nanos>
  <sequence>9</sequence>
  <logger></logger>
  <level>INFO</level>
  <class>uk.ac.ncl.ndjc9.ClassroomVoting.Generator</class>
  <method>run</method>
  <thread>11</thread>
  <message>start:1538138259141</message>
</record>
<record>
  <date>2018-09-28T12:37:39.150132Z</date>
  <millis>1538138259150</millis>
  <nanos>132000</nanos>
  <sequence>10</sequence>
  <logger></logger>
  <level>SEVERE</level>
  <class>uk.ac.ncl.ndjc9.ClassroomVoting.Generator</class>
  <method>run</method>
  <thread>11</thread>
  <message>java.sql.SQLException: Access denied for user 'root'@'localhost' (using password: YES)</message>
</record>
<record>
  <date>2018-09-28T12:39:37.948416Z</date>
  <millis>1538138377948</millis>
  <nanos>416000</nanos>
  <sequence>11</sequence>
  <logger></logger>
  <level>INFO</level>
  <class>uk.ac.ncl.ndjc9.ClassroomVoting.Generator</class>
  <method>run</method>
  <thread>11</thread>
  <message>start:1538138377948</message>
</record>
<record>
  <date>2018-09-28T12:39:37.959510Z</date>
  <millis>1538138377959</millis>
  <nanos>510000</nanos>
  <sequence>12</sequence>
  <logger></logger>
  <level>SEVERE</level>
  <class>uk.ac.ncl.ndjc9.ClassroomVoting.Generator</class>
  <method>run</method>
  <thread>11</thread>
  <message>java.sql.SQLException: Access denied for user 'root'@'localhost' (using password: YES)</message>
</record>
<record>
  <date>2018-09-28T12:39:53.485381Z</date>
  <millis>1538138393485</millis>
  <nanos>381000</nanos>
  <sequence>13</sequence>
  <logger></logger>
  <level>INFO</level>
  <class>uk.ac.ncl.ndjc9.ClassroomVoting.Generator</class>
  <method>run</method>
  <thread>11</thread>
  <message>start:1538138393485</message>
</record>
<record>
  <date>2018-09-28T12:39:53.496322Z</date>
  <millis>1538138393496</millis>
  <nanos>322000</nanos>
  <sequence>14</sequence>
  <logger></logger>
  <level>SEVERE</level>
  <class>uk.ac.ncl.ndjc9.ClassroomVoting.Generator</class>
  <method>run</method>
  <thread>11</thread>
  <message>java.sql.SQLException: Access denied for user 'root'@'localhost' (using password: YES)</message>
</record>
</log>
