<?xml version="1.0" encoding="UTF-8" standalone="no"?>
<!DOCTYPE log SYSTEM "logger.dtd">
<log>
<record>
  <date>2018-09-19T15:36:12.649554Z</date>
  <millis>1537371372649</millis>
  <nanos>554000</nanos>
  <sequence>0</sequence>
  <logger></logger>
  <level>INFO</level>
  <class>uk.ac.ncl.ndjc9.ClassroomVoting.Generator</class>
  <method>main</method>
  <thread>1</thread>
  <message>Started-new</message>
</record>
<record>
  <date>2018-09-19T15:36:41.299700Z</date>
  <millis>1537371401299</millis>
  <nanos>700000</nanos>
  <sequence>1</sequence>
  <logger></logger>
  <level>INFO</level>
  <class>uk.ac.ncl.ndjc9.ClassroomVoting.Generator</class>
  <method>run</method>
  <thread>11</thread>
  <message>start:1537371401299</message>
</record>
<record>
  <date>2018-09-19T15:37:19.776472Z</date>
  <millis>1537371439776</millis>
  <nanos>472000</nanos>
  <sequence>2</sequence>
  <logger></logger>
  <level>INFO</level>
  <class>uk.ac.ncl.ndjc9.ClassroomVoting.Generator</class>
  <method>run</method>
  <thread>11</thread>
  <message>4: end time:1537371439776</message>
</record>
</log>
