<?xml version="1.0" encoding="UTF-8" standalone="no"?>
<!DOCTYPE log SYSTEM "logger.dtd">
<log>
<record>
  <date>2018-09-11T12:08:59.483849Z</date>
  <millis>1536667739483</millis>
  <nanos>849000</nanos>
  <sequence>0</sequence>
  <logger></logger>
  <level>INFO</level>
  <class>uk.ac.ncl.ndjc9.ClassroomVoting.Generator</class>
  <method>main</method>
  <thread>1</thread>
  <message>Started-new</message>
</record>
<record>
  <date>2018-09-11T12:10:00.526264Z</date>
  <millis>1536667800526</millis>
  <nanos>264000</nanos>
  <sequence>1</sequence>
  <logger></logger>
  <level>INFO</level>
  <class>uk.ac.ncl.ndjc9.ClassroomVoting.Generator</class>
  <method>run</method>
  <thread>11</thread>
  <message>start:1536667800526</message>
</record>
<record>
  <date>2018-09-11T12:10:45.031949Z</date>
  <millis>1536667845031</millis>
  <nanos>949000</nanos>
  <sequence>2</sequence>
  <logger></logger>
  <level>INFO</level>
  <class>uk.ac.ncl.ndjc9.ClassroomVoting.Generator</class>
  <method>run</method>
  <thread>11</thread>
  <message>2: end time:1536667845031</message>
</record>
</log>
