<?xml version="1.0" encoding="UTF-8" standalone="no"?>
<!DOCTYPE log SYSTEM "logger.dtd">
<log>
<record>
  <date>2018-09-13T22:34:31.511092Z</date>
  <millis>1536878071511</millis>
  <nanos>92000</nanos>
  <sequence>0</sequence>
  <logger></logger>
  <level>INFO</level>
  <class>uk.ac.ncl.n8116570.ClassroomVoting.Signature</class>
  <method>main</method>
  <thread>1</thread>
  <message>Started</message>
</record>
</log>
