<?xml version="1.0" encoding="UTF-8" standalone="no"?>
<!DOCTYPE log SYSTEM "logger.dtd">
<log>
<record>
  <date>2018-09-25T11:44:34.350470Z</date>
  <millis>1537875874350</millis>
  <nanos>470000</nanos>
  <sequence>0</sequence>
  <logger></logger>
  <level>INFO</level>
  <class>uk.ac.ncl.n8116570.ClassroomVoting.Signature</class>
  <method>main</method>
  <thread>1</thread>
  <message>Started</message>
</record>
</log>
